isdn,sub_id,contact_no,reason_code,description,product_code,promotion_code,act_status,change_name,change_type,sub_type,province,account_id,service_type,month,status,pay_type
1,1,A,A,A,A,A,A,A,A,A,HN,A,A,20200219,1,TT
2,2,A,A,A,A,A,A,A,A,A,DN,A,A,20190320,2,TS
3,3,A,A,A,A,A,A,A,A,A,HCM,A,A,20200217,3,TS
4,4,A,A,A,A,A,A,A,A,A,ND,A,A,20200215,4,TS
5,5,A,A,A,A,A,A,A,A,A,QN,A,A,20200213,5,TT
6,6,A,A,A,A,A,A,A,A,A,TB,A,A,20200211,6,TS
7,7,A,A,A,A,A,A,A,A,A,HD,A,A,20200209,7,TS
8,8,A,A,A,A,A,A,A,A,A,TQ,A,A,20200207,6,TS
9,9,A,A,A,A,A,A,A,A,A,HP,A,A,20200205,9,TT
10,10,A,A,A,A,A,A,A,A,A,QB,A,A,20180308,3,TS
