ISDN,pay_type,TOTAL_UP ,TOTAL_DOWN ,TOTAL_DATA ,DATA_YOUTUBE_CACHED,DATA_FACEBOOK_CACHED,DATA_WHATSAPP_CACHED,DATA_CINEMA_CACHED,DATA_TV_CACHED,DATA_YOUTUBE,DATA_FACEBOOK,DATA_WHATSAPP,country,infra_type
1,TT,1,1,1,1,1,1,1,1,1,1,1,VN,a
2,TT,2,2,2,2,2,2,2,2,2,2,2,Japan,a
3,TT,3,3,3,3,3,3,3,3,3,3,3,Korean,a
4,TT,4,4,4,4,4,4,4,4,4,4,4,VN,a
5,TT,5,5,5,5,5,5,5,5,5,5,5,Japan,a
6,TT,6,6,6,6,6,6,6,6,6,6,6,Korean,a
7,TT,7,7,7,7,7,7,7,7,7,7,7,VN,a
8,TT,8,8,8,8,8,8,8,8,8,8,8,Japan,a
9,TT,9,9,9,9,9,9,9,9,9,9,9,Korean,a
10,TT,10,10,10,10,10,10,10,10,10,10,10,VN,a
11,TT,11,11,11,11,11,11,11,11,11,11,11,Japan,a
12,TT,12,12,12,12,12,12,12,12,12,12,12,Korean,a
13,TT,13,13,13,13,13,13,13,13,13,13,13,VN,a
14,TT,14,14,14,14,14,14,14,14,14,14,14,VN,a
