isdn,sub_id,pay_type,v_int_org_charge,v_ext_org_charge,s_org_charge,s_ext_org_charge,v_int_duration,period,promotion
1,1,TT,1,1,1,1,1,20200212,A
2,2,TT,2,2,2,2,2,20200213,B
3,3,TS,3,3,3,3,3,20200214,C
4,4,TT,4,4,4,4,4,20200215,D
5,5,TT,5,5,5,5,5,20200216,E
6,6,TT,6,6,6,6,6,20200217,G
7,7,TS,7,7,7,7,7,20200218,U
8,8,TT,8,8,8,8,8,20200219,R
9,9,TT,9,9,9,9,9,20200220,J
10,10,TT,10,10,10,10,10,20200221,O
